epoch,loss
0,8.370339393615723
1,7.304259777069092
2,7.158853530883789
3,7.092002868652344
4,7.040639400482178
5,6.990762710571289
6,6.945309638977051
7,6.899343490600586
8,6.856555938720703
9,6.813425540924072
10,6.771188259124756
11,6.727731227874756
12,6.6753153800964355
13,6.628139972686768
14,6.576463222503662
15,6.527039051055908
16,6.47723913192749
17,6.426671981811523
18,6.375790119171143
19,6.323437690734863
20,6.270200252532959
21,6.2170186042785645
22,6.1646952629089355
23,6.111862659454346
24,6.05731725692749
25,6.007303237915039
26,5.95381498336792
27,5.904464244842529
28,5.855930328369141
29,5.807335376739502
30,5.760817050933838
31,5.713423728942871
32,5.669545650482178
33,5.627613067626953
34,5.584310054779053
35,5.54361629486084
36,5.502132415771484
37,5.465251445770264
38,5.423484802246094
39,5.384353160858154
40,5.3499674797058105
41,5.310227870941162
42,5.278892517089844
43,5.241703987121582
44,5.207371234893799
45,5.1740336418151855
46,5.138943672180176
47,5.108329772949219
48,5.074886322021484
49,5.044407844543457
50,5.015078067779541
51,4.986590385437012
52,4.955046653747559
53,4.929041862487793
54,4.89706563949585
55,4.870932579040527
56,4.843957901000977
57,4.820679664611816
58,4.79160737991333
59,4.767765998840332
60,4.739851474761963
61,4.714574337005615
62,4.692783355712891
63,4.669551849365234
64,4.645956993103027
65,4.623970031738281
66,4.605672359466553
67,4.5782365798950195
68,4.559113502502441
69,4.540163993835449
70,4.515439510345459
71,4.492812156677246
72,4.472527027130127
73,4.457935333251953
74,4.439200401306152
75,4.41800594329834
76,4.401366710662842
77,4.381105422973633
78,4.36090612411499
79,4.348371505737305
80,4.327115058898926
81,4.307676792144775
82,4.297280311584473
83,4.279344081878662
84,4.2605509757995605
85,4.249986171722412
86,4.233278751373291
87,4.219677448272705
88,4.201911449432373
89,4.191081523895264
90,4.176783561706543
91,4.160140514373779
92,4.151821136474609
93,4.134859561920166
94,4.1174821853637695
95,4.108097553253174
96,4.092251300811768
97,4.083346366882324
98,4.071321964263916
99,4.058268070220947
100,4.04173469543457
101,4.032196998596191
102,4.023464679718018
103,4.007805347442627
104,3.9975221157073975
105,3.994398832321167
106,3.977200746536255
107,3.9696714878082275
108,3.956723690032959
109,3.943908929824829
110,3.9389665126800537
111,3.92588472366333
112,3.9196720123291016
113,3.9080393314361572
114,3.893092632293701
115,3.8904240131378174
116,3.879039764404297
117,3.8659963607788086
118,3.861834764480591
119,3.8507003784179688
120,3.844432830810547
121,3.828573703765869
122,3.8296778202056885
123,3.815486431121826
124,3.8060526847839355
125,3.8005809783935547
126,3.7897260189056396
127,3.777024269104004
128,3.7732248306274414
129,3.7624993324279785
130,3.7595043182373047
131,3.7493529319763184
132,3.7445878982543945
133,3.736401081085205
134,3.7211830615997314
135,3.72104811668396
136,3.718123197555542
137,3.7057316303253174
138,3.7000436782836914
139,3.6885361671447754
140,3.6802353858947754
141,3.672307014465332
142,3.6628048419952393
143,3.6648218631744385
144,3.6522912979125977
145,3.6452443599700928
146,3.6434786319732666
147,3.6346232891082764
148,3.6239426136016846
149,3.6216883659362793
150,3.6150619983673096
151,3.6042144298553467
152,3.60396409034729
153,3.5921132564544678
154,3.5875306129455566
155,3.5766749382019043
156,3.5714385509490967
157,3.5762715339660645
158,3.5615134239196777
159,3.5541317462921143
160,3.554239273071289
161,3.5521156787872314
162,3.540148973464966
163,3.5369679927825928
164,3.523829698562622
165,3.5220110416412354
166,3.5181939601898193
167,3.5123496055603027
168,3.508667230606079
169,3.499135971069336
170,3.4992012977600098
171,3.4903557300567627
172,3.483372926712036
173,3.4784328937530518
174,3.4694604873657227
175,3.470245838165283
176,3.465468406677246
177,3.4531912803649902
178,3.456463575363159
179,3.4538469314575195
180,3.4412198066711426
181,3.440098524093628
182,3.4376232624053955
183,3.4305195808410645
184,3.4203243255615234
185,3.4263057708740234
186,3.414461612701416
187,3.411515951156616
188,3.4121599197387695
189,3.404226064682007
190,3.4002978801727295
191,3.397367477416992
192,3.3960978984832764
193,3.384277582168579
194,3.3804945945739746
195,3.3754138946533203
196,3.368046760559082
197,3.361384153366089
198,3.3617444038391113
199,3.359374761581421
