epoch,loss
0,8.16222095489502
1,7.264223098754883
2,7.155484676361084
3,7.092869758605957
4,7.035921096801758
5,6.981686115264893
6,6.9260478019714355
7,6.871817588806152
8,6.820458889007568
9,6.766172885894775
10,6.705591678619385
11,6.642664432525635
12,6.5795674324035645
13,6.519499778747559
14,6.460700035095215
15,6.4028215408325195
16,6.346513748168945
17,6.29208517074585
18,6.240022659301758
19,6.185055255889893
20,6.132851600646973
21,6.081867218017578
22,6.027796268463135
23,5.978606224060059
24,5.9274115562438965
25,5.872777938842773
26,5.820035934448242
27,5.772592067718506
28,5.719549179077148
29,5.66697359085083
30,5.619129657745361
31,5.5711989402771
32,5.528364181518555
33,5.478611469268799
34,5.436078071594238
35,5.392963409423828
36,5.347890853881836
37,5.3063883781433105
38,5.266064167022705
39,5.226375102996826
40,5.18597412109375
41,5.149434566497803
42,5.108035087585449
43,5.07119607925415
44,5.037902355194092
45,5.0019965171813965
46,4.964653968811035
47,4.9336113929748535
48,4.899677276611328
49,4.868722915649414
50,4.834258556365967
51,4.806147575378418
52,4.773271560668945
53,4.745180130004883
54,4.716645240783691
55,4.68695068359375
56,4.659694194793701
57,4.633734703063965
58,4.608153343200684
59,4.581313610076904
60,4.557028770446777
61,4.536140441894531
62,4.50897741317749
63,4.4850053787231445
64,4.465616703033447
65,4.440309047698975
66,4.424163818359375
67,4.400686740875244
68,4.382941246032715
69,4.360856056213379
70,4.340778350830078
71,4.32311487197876
72,4.302504062652588
73,4.286344051361084
74,4.269076347351074
75,4.249251365661621
76,4.232885837554932
77,4.2188615798950195
78,4.201186180114746
79,4.184513092041016
80,4.165931701660156
81,4.153580665588379
82,4.139096736907959
83,4.123764514923096
84,4.110258102416992
85,4.0949788093566895
86,4.081900119781494
87,4.067314624786377
88,4.057742118835449
89,4.045599937438965
90,4.03620719909668
91,4.020749568939209
92,4.007150650024414
93,3.9944517612457275
94,3.977977752685547
95,3.9667325019836426
96,3.9587724208831787
97,3.945967435836792
98,3.932765245437622
99,3.925184488296509
100,3.915212392807007
101,3.9021425247192383
102,3.890990972518921
103,3.8858258724212646
104,3.871267318725586
105,3.8637115955352783
106,3.8544411659240723
107,3.8463799953460693
108,3.8345487117767334
109,3.8242831230163574
110,3.8126771450042725
111,3.80198073387146
112,3.797722339630127
113,3.7876973152160645
114,3.7798004150390625
115,3.772674560546875
116,3.7597174644470215
117,3.75130033493042
118,3.7425591945648193
119,3.7372777462005615
120,3.7281222343444824
121,3.7230443954467773
122,3.717780828475952
123,3.7035586833953857
124,3.695293426513672
125,3.693199634552002
126,3.682352066040039
127,3.676259994506836
128,3.670743942260742
129,3.665043830871582
130,3.651934862136841
131,3.649599075317383
132,3.640742301940918
133,3.634829521179199
134,3.6284847259521484
135,3.619614362716675
136,3.615885019302368
137,3.6061925888061523
138,3.6013500690460205
139,3.5957183837890625
140,3.588667631149292
141,3.579576253890991
142,3.576565980911255
143,3.569974899291992
144,3.566265344619751
145,3.5574193000793457
146,3.5561084747314453
147,3.5467653274536133
148,3.5437183380126953
149,3.5347325801849365
150,3.5290327072143555
151,3.526336431503296
152,3.523545980453491
153,3.512810468673706
154,3.5084142684936523
155,3.506072521209717
156,3.498352527618408
157,3.488734483718872
158,3.489748001098633
159,3.484780788421631
160,3.481748580932617
161,3.4773058891296387
162,3.4694647789001465
163,3.4635164737701416
164,3.460552453994751
165,3.4550466537475586
166,3.4516665935516357
167,3.44638991355896
168,3.434112071990967
169,3.4369115829467773
170,3.4317574501037598
171,3.432478189468384
172,3.423086166381836
173,3.4211297035217285
174,3.4156293869018555
175,3.4072654247283936
176,3.404974937438965
177,3.4034695625305176
178,3.4028589725494385
179,3.395909309387207
180,3.3884007930755615
181,3.387875556945801
182,3.3790180683135986
183,3.3830790519714355
184,3.3741729259490967
185,3.3675737380981445
186,3.3661952018737793
187,3.358924388885498
188,3.3599679470062256
189,3.357893228530884
190,3.3540120124816895
191,3.348693609237671
192,3.3450100421905518
193,3.3386120796203613
194,3.3353049755096436
195,3.33723783493042
196,3.3294429779052734
197,3.3235666751861572
198,3.321216106414795
199,3.3183987140655518
