epoch,loss
0,7.673583984375
1,7.270180702209473
2,7.01321268081665
3,6.791509628295898
4,6.602020740509033
5,6.420355796813965
6,6.261591911315918
7,6.127527713775635
8,6.012237071990967
9,5.906126499176025
10,5.811266899108887
11,5.7223219871521
12,5.639552116394043
13,5.562080383300781
14,5.4902544021606445
15,5.422608375549316
16,5.358572006225586
17,5.2956037521362305
18,5.239065170288086
19,5.183902740478516
20,5.129909038543701
21,5.0814619064331055
22,5.034612655639648
23,4.990170001983643
24,4.948019027709961
25,4.907840728759766
26,4.867873668670654
27,4.832108974456787
28,4.798302173614502
29,4.764629364013672
30,4.733099937438965
31,4.704807281494141
32,4.676435470581055
33,4.649150848388672
34,4.625030040740967
35,4.600917339324951
36,4.578078269958496
37,4.5557780265808105
38,4.533880233764648
39,4.516602993011475
40,4.49785041809082
41,4.478538990020752
42,4.461178302764893
43,4.447542190551758
44,4.427587032318115
45,4.412866592407227
46,4.398938179016113
47,4.386218070983887
48,4.370682716369629
49,4.360251426696777
50,4.343392372131348
51,4.329939365386963
52,4.321620464324951
53,4.3091278076171875
54,4.30072546005249
55,4.28793478012085
56,4.277173042297363
57,4.269036293029785
58,4.258499622344971
59,4.247219085693359
60,4.239292621612549
61,4.232598304748535
62,4.222189903259277
63,4.213203430175781
64,4.20731782913208
65,4.197722911834717
66,4.190653324127197
67,4.18335485458374
68,4.177050590515137
69,4.16972017288208
70,4.162703037261963
71,4.153982162475586
72,4.152520656585693
73,4.1445631980896
74,4.1390533447265625
75,4.132189750671387
76,4.124117851257324
77,4.122039794921875
78,4.115796089172363
79,4.108122825622559
80,4.105713367462158
81,4.100080490112305
82,4.096246242523193
83,4.089849472045898
84,4.087230682373047
85,4.081426620483398
86,4.0788726806640625
87,4.071414947509766
88,4.067689895629883
89,4.065347194671631
90,4.0616044998168945
91,4.056570053100586
92,4.053552627563477
93,4.048569202423096
94,4.045555114746094
95,4.039796829223633
96,4.035585880279541
97,4.034580230712891
98,4.032031536102295
99,4.027261734008789
100,4.024242401123047
101,4.02017879486084
102,4.018218994140625
103,4.015960216522217
104,4.012430191040039
105,4.010535717010498
106,4.004211902618408
107,4.0012969970703125
108,4.001512050628662
109,3.9987120628356934
110,3.994934558868408
111,3.990069627761841
112,3.989337682723999
113,3.986607313156128
114,3.984847068786621
115,3.9819514751434326
116,3.9781932830810547
117,3.974159002304077
118,3.9762182235717773
119,3.972808361053467
120,3.9694266319274902
121,3.9674739837646484
122,3.966102361679077
123,3.9623804092407227
124,3.963954210281372
125,3.9583637714385986
126,3.9591293334960938
127,3.958500862121582
128,3.9506778717041016
129,3.9503226280212402
130,3.9510867595672607
131,3.9464762210845947
132,3.945452928543091
133,3.945369005203247
134,3.947063446044922
135,3.937110662460327
136,3.9381604194641113
137,3.9360857009887695
138,3.936431884765625
139,3.9345345497131348
140,3.9320621490478516
141,3.9285600185394287
142,3.9304773807525635
143,3.928656816482544
144,3.9240384101867676
145,3.9267630577087402
146,3.924191474914551
147,3.921246290206909
148,3.9169955253601074
149,3.918044090270996
150,3.9185726642608643
151,3.9152798652648926
152,3.918074131011963
153,3.9160351753234863
154,3.912867784500122
155,3.9103498458862305
156,3.910757303237915
157,3.9081900119781494
158,3.9052505493164062
159,3.9083642959594727
160,3.9053449630737305
161,3.905045986175537
162,3.904548406600952
163,3.901129961013794
164,3.901491403579712
165,3.9016592502593994
166,3.8955399990081787
167,3.8982279300689697
168,3.8933444023132324
169,3.894793748855591
170,3.8940868377685547
171,3.892886161804199
172,3.889209747314453
173,3.890403985977173
174,3.8924922943115234
175,3.892202854156494
176,3.8878910541534424
177,3.8901138305664062
178,3.889803171157837
179,3.881916046142578
180,3.8829545974731445
181,3.8819503784179688
182,3.8849937915802
183,3.8825833797454834
184,3.8809261322021484
185,3.880037546157837
186,3.8796074390411377
187,3.87833571434021
188,3.8785860538482666
189,3.8737988471984863
190,3.875673532485962
191,3.876798152923584
192,3.871412754058838
193,3.873310089111328
194,3.8754992485046387
195,3.869999647140503
196,3.867091178894043
197,3.870614528656006
198,3.8690779209136963
199,3.867687225341797
