epoch,accuracy,loss,val_accuracy,val_loss
0,0.5867210626602173,1.2068508863449097,0.6209349036216736,1.1093140840530396
1,0.6558395028114319,1.0247145891189575,0.6273764371871948,1.0811783075332642
2,0.7054938077926636,0.8934999108314514,0.653947651386261,1.0595694780349731
3,0.7564801573753357,0.7546664476394653,0.6492507457733154,1.0883805751800537
4,0.8031969666481018,0.6216913461685181,0.6557369828224182,1.1371856927871704
5,0.8437703251838684,0.5049962401390076,0.6584656834602356,1.2277690172195435
6,0.8744128942489624,0.413044810295105,0.6543949842453003,1.3065271377563477
7,0.8979079723358154,0.3424992561340332,0.6555132865905762,1.4280414581298828
0,0.17870672047138214,2.2211897373199463,0.1252516210079193,2.198366641998291
1,0.29274982213974,2.0093493461608887,0.1316036731004715,2.2459733486175537
0,0.5896238088607788,1.203986406326294,0.6246477365493774,1.1034663915634155
1,0.6590652465820312,1.0202733278274536,0.6466562151908875,1.0580503940582275
2,0.7097037434577942,0.8870910406112671,0.6577051877975464,1.0535601377487183
3,0.7606503367424011,0.7502041459083557,0.6619548201560974,1.069447636604309
4,0.8053193092346191,0.6211378574371338,0.6572578549385071,1.119086503982544
5,0.8440983891487122,0.5081866979598999,0.6560500860214233,1.1932990550994873
6,0.8741593956947327,0.416361004114151,0.654171347618103,1.2851041555404663
7,0.8968194127082825,0.3496442437171936,0.6392306089401245,1.3872789144515991
0,0.5771281719207764,1.2323951721191406,0.6152091026306152,1.1363317966461182
1,0.6347848773002625,1.0797791481018066,0.6297472715377808,1.098402500152588
2,0.669721782207489,0.9854089021682739,0.6364571452140808,1.0937687158584595
3,0.710672914981842,0.8765305876731873,0.6430776119232178,1.0986474752426147
4,0.7538905739784241,0.7580981850624084,0.6430776119232178,1.1421173810958862
5,0.7946329712867737,0.6402104496955872,0.6451353430747986,1.224350929260254
6,0.8297737240791321,0.5354689955711365,0.6389622092247009,1.3311402797698975
7,0.8607591986656189,0.44746527075767517,0.6428539752960205,1.4607162475585938
0,0.5380459427833557,1.3586270809173584,0.5919033885002136,1.18398118019104
0,0.5890024900436401,1.204476237297058,0.6284052729606628,1.0984740257263184
1,0.6595921516418457,1.0183113813400269,0.6451800465583801,1.069179892539978
2,0.7088935375213623,0.8838266730308533,0.6548870205879211,1.0562349557876587
3,0.760794460773468,0.7446088194847107,0.6590919494628906,1.076561689376831
4,0.8076156377792358,0.6132855415344238,0.6596734523773193,1.1242560148239136
5,0.8461958765983582,0.5000477433204651,0.660254955291748,1.2028146982192993
6,0.8770372271537781,0.410551518201828,0.6482218503952026,1.3035048246383667
7,0.8988175392150879,0.3434753119945526,0.6590471863746643,1.3963229656219482
0,0.5878543257713318,1.2036882638931274,0.6288079023361206,1.0978150367736816
1,0.6561675071716309,1.0255340337753296,0.6461194157600403,1.069441556930542
2,0.7048327326774597,0.8967493176460266,0.6501006484031677,1.0561399459838867
3,0.7569672465324402,0.7608642578125,0.6563632488250732,1.078827977180481
4,0.8024762272834778,0.6286848187446594,0.6645045876502991,1.1409046649932861
5,0.8418815732002258,0.5141963362693787,0.657571017742157,1.1964218616485596
6,0.8722060322761536,0.42287349700927734,0.6610154509544373,1.3029265403747559
7,0.8957756757736206,0.3521154820919037,0.6550212502479553,1.3784143924713135
