epoch,accuracy,loss,val_accuracy,val_loss
0,0.5613322854042053,1.5241800546646118,0.6059494614601135,1.2074036598205566
1,0.6259375214576721,1.0901840925216675,0.6188324689865112,1.157275676727295
2,0.6360970139503479,1.0305054187774658,0.6188772320747375,1.1533477306365967
3,0.6408437490463257,1.0038642883300781,0.6175352334976196,1.154112696647644
4,0.6445814967155457,0.9837853312492371,0.6131961345672607,1.1697357892990112
5,0.6489107608795166,0.9675606489181519,0.6171773672103882,1.176908254623413
6,0.65221107006073,0.9526523351669312,0.6164616346359253,1.1831539869308472
7,0.6540451645851135,0.9423506259918213,0.6194139719009399,1.2119661569595337
0,0.5103707313537598,1.9138336181640625,0.6083202958106995,1.2028595209121704
1,0.5943257808685303,1.2104240655899048,0.6121672987937927,1.1503921747207642
2,0.6030587553977966,1.1537187099456787,0.616014301776886,1.131479024887085
3,0.6064634919166565,1.1346491575241089,0.6150301694869995,1.1312004327774048
4,0.6101664304733276,1.122765302658081,0.6193692684173584,1.1269209384918213
5,0.6111158132553101,1.1157547235488892,0.6182956695556641,1.1311944723129272
6,0.6150424480438232,1.105218529701233,0.6161932349205017,1.1288254261016846
7,0.6152462363243103,1.0996742248535156,0.6182062029838562,1.1367589235305786
8,0.6165136694908142,1.0912821292877197,0.6148959994316101,1.1363234519958496
9,0.6173983812332153,1.0887755155563354,0.6211138367652893,1.1348044872283936
0,0.4335414469242096,5.529545307159424,0.43746086955070496,4.736250877380371
1,0.43744346499443054,4.383170127868652,0.43746086955070496,4.244485855102539
2,0.43744346499443054,4.241730213165283,0.43746086955070496,4.23853874206543
0,0.5119364261627197,1.8671692609786987,0.6091701984405518,1.1904683113098145
1,0.5964034199714661,1.1976875066757202,0.6143592000007629,1.1419705152511597
2,0.6047139167785645,1.1514208316802979,0.6175352334976196,1.1352496147155762
3,0.6070748567581177,1.135587453842163,0.6183404326438904,1.128325343132019
4,0.6102409958839417,1.1233514547348022,0.6151643991470337,1.1300135850906372
5,0.6127162575721741,1.1143839359283447,0.6204428672790527,1.12651789188385
6,0.6155493855476379,1.1047263145446777,0.6197271347045898,1.1317912340164185
7,0.6175425052642822,1.09922456741333,0.6169089674949646,1.1364575624465942
8,0.6181290149688721,1.0943130254745483,0.6197271347045898,1.1289803981781006
9,0.6197643280029297,1.0893142223358154,0.6154327988624573,1.133410930633545
